<svg xmlns="http://www.w3.org/2000/svg" width="137.636718" height="25.0" viewBox="0 0 137.636718 25.0">
  <defs>
    <clipPath id="rounded_corners">
      <rect width="137.636718" height="25.0" x="0" y="0" rx="4.0" ry="4"/>
    </clipPath>
  </defs>
  <g clip-path="url(#rounded_corners)">
    <rect width="48.863281" height="25.0" x="0" y="0" fill="#0284c7"/>
    <rect width="88.773437" height="25.0" x="48.863281" y="0" fill="#075985"/>
  </g>
  <g transform="translate(5.1976576746862335, 18.318181818181817)" fill="#ffffff">
    <path d="M 2.5625 -5.25 C 2.5625 -6.765625 3.546875 -7.640625 4.859375 -7.640625 C 6.125 -7.640625 6.890625 -6.84375 6.890625 -5.453125 L 6.890625 0 L 8.234375 0 L 8.234375 -5.546875 C 8.234375 -7.796875 7.03125 -8.84375 5.25 -8.84375 C 3.875 -8.84375 3.09375 -8.265625 2.6875 -7.359375 L 2.5625 -7.359375 L 2.5625 -11.640625 L 1.234375 -11.640625 L 1.234375 0 L 2.5625 0 Z M 14.34375 0.1875 C 16.109375 0.1875 17.40625 -0.703125 17.8125 -2.015625 L 16.515625 -2.390625 C 16.1875 -1.484375 15.390625 -1.015625 14.34375 -1.015625 C 12.765625 -1.015625 11.6875 -2.046875 11.625 -3.90625 L 17.953125 -3.90625 L 17.953125 -4.484375 C 17.953125 -7.734375 16.015625 -8.84375 14.203125 -8.84375 C 11.84375 -8.84375 10.265625 -6.984375 10.265625 -4.296875 C 10.265625 -1.609375 11.8125 0.1875 14.34375 0.1875 Z M 11.625 -5.0625 C 11.703125 -6.421875 12.671875 -7.640625 14.203125 -7.640625 C 15.65625 -7.640625 16.59375 -6.546875 16.59375 -5.0625 Z M 21.335938 -11.640625 L 20.007812 -11.640625 L 20.007812 0 L 21.335938 0 Z M 25.128906 -11.640625 L 23.800781 -11.640625 L 23.800781 0 L 25.128906 0 Z M 31.128906 0.1875 C 33.503906 0.1875 35.097656 -1.609375 35.097656 -4.3125 C 35.097656 -7.046875 33.503906 -8.84375 31.128906 -8.84375 C 28.769531 -8.84375 27.175781 -7.046875 27.175781 -4.3125 C 27.175781 -1.609375 28.769531 0.1875 31.128906 0.1875 Z M 31.128906 -1.015625 C 29.347656 -1.015625 28.519531 -2.5625 28.519531 -4.3125 C 28.519531 -6.0625 29.347656 -7.640625 31.128906 -7.640625 C 32.925781 -7.640625 33.753906 -6.0625 33.753906 -4.3125 C 33.753906 -2.5625 32.925781 -1.015625 31.128906 -1.015625 Z M 35.910156 0 "/>
  </g>
  <g transform="translate(56.363281, 18.318181818181817)" fill="#ffffff">
    <path d="M 4.90625 0.171875 C 7.234375 0.171875 8.6875 -1.1875 8.8125 -3.203125 L 6.515625 -3.203125 C 6.375 -2.265625 5.765625 -1.75 4.9375 -1.75 C 3.8125 -1.75 3.078125 -2.6875 3.078125 -4.359375 C 3.078125 -6.015625 3.8125 -6.953125 4.9375 -6.953125 C 5.828125 -6.953125 6.390625 -6.375 6.515625 -5.5 L 8.8125 -5.5 C 8.703125 -7.515625 7.171875 -8.84375 4.890625 -8.84375 C 2.25 -8.84375 0.609375 -7 0.609375 -4.328125 C 0.609375 -1.671875 2.21875 0.171875 4.90625 0.171875 Z M 14.304688 0.171875 C 16.960938 0.171875 18.601562 -1.640625 18.601562 -4.328125 C 18.601562 -7.03125 16.960938 -8.84375 14.304688 -8.84375 C 11.664062 -8.84375 10.007812 -7.03125 10.007812 -4.328125 C 10.007812 -1.640625 11.664062 0.171875 14.304688 0.171875 Z M 14.320312 -1.703125 C 13.101562 -1.703125 12.476562 -2.828125 12.476562 -4.34375 C 12.476562 -5.875 13.101562 -7 14.320312 -7 C 15.523438 -7 16.148438 -5.875 16.148438 -4.34375 C 16.148438 -2.828125 15.523438 -1.703125 14.320312 -1.703125 Z M 23.402344 0.140625 C 24.808594 0.140625 25.542969 -0.671875 25.871094 -1.390625 L 25.980469 -1.390625 L 25.980469 0 L 28.355469 0 L 28.355469 -11.640625 L 25.949219 -11.640625 L 25.949219 -7.265625 L 25.871094 -7.265625 C 25.542969 -7.96875 24.855469 -8.84375 23.386719 -8.84375 C 21.480469 -8.84375 19.855469 -7.359375 19.855469 -4.359375 C 19.855469 -1.4375 21.402344 0.140625 23.402344 0.140625 Z M 24.167969 -1.78125 C 22.980469 -1.78125 22.324219 -2.84375 22.324219 -4.359375 C 22.324219 -5.875 22.964844 -6.921875 24.167969 -6.921875 C 25.339844 -6.921875 25.996094 -5.921875 25.996094 -4.359375 C 25.996094 -2.8125 25.324219 -1.78125 24.167969 -1.78125 Z M 34.316406 0.171875 C 36.488281 0.171875 37.941406 -0.875 38.269531 -2.5 L 36.035156 -2.640625 C 35.800781 -1.984375 35.175781 -1.640625 34.363281 -1.640625 C 33.144531 -1.640625 32.378906 -2.4375 32.378906 -3.734375 L 32.378906 -3.75 L 38.332031 -3.75 L 38.332031 -4.40625 C 38.332031 -7.375 36.535156 -8.84375 34.222656 -8.84375 C 31.660156 -8.84375 29.988281 -7.015625 29.988281 -4.328125 C 29.988281 -1.5625 31.628906 0.171875 34.316406 0.171875 Z M 32.378906 -5.25 C 32.441406 -6.234375 33.191406 -7.03125 34.269531 -7.03125 C 35.316406 -7.03125 36.050781 -6.28125 36.050781 -5.25 Z M 39.957031 0 L 42.332031 0 L 42.332031 -1.390625 L 42.441406 -1.390625 C 42.785156 -0.671875 43.519531 0.140625 44.925781 0.140625 C 46.910156 0.140625 48.457031 -1.4375 48.457031 -4.359375 C 48.457031 -7.359375 46.847656 -8.84375 44.925781 -8.84375 C 43.472656 -8.84375 42.769531 -7.96875 42.441406 -7.265625 L 42.378906 -7.265625 L 42.378906 -11.640625 L 39.957031 -11.640625 Z M 42.316406 -4.359375 C 42.316406 -5.921875 42.988281 -6.921875 44.160156 -6.921875 C 45.363281 -6.921875 45.988281 -5.875 45.988281 -4.359375 C 45.988281 -2.84375 45.347656 -1.78125 44.160156 -1.78125 C 42.988281 -1.78125 42.316406 -2.8125 42.316406 -4.359375 Z M 54.046875 0.171875 C 56.21875 0.171875 57.671875 -0.875 58 -2.5 L 55.765625 -2.640625 C 55.53125 -1.984375 54.90625 -1.640625 54.09375 -1.640625 C 52.875 -1.640625 52.109375 -2.4375 52.109375 -3.734375 L 52.109375 -3.75 L 58.0625 -3.75 L 58.0625 -4.40625 C 58.0625 -7.375 56.265625 -8.84375 53.953125 -8.84375 C 51.390625 -8.84375 49.71875 -7.015625 49.71875 -4.328125 C 49.71875 -1.5625 51.359375 0.171875 54.046875 0.171875 Z M 52.109375 -5.25 C 52.171875 -6.234375 52.921875 -7.03125 54 -7.03125 C 55.046875 -7.03125 55.78125 -6.28125 55.78125 -5.25 Z M 59.640625 0 L 62.0625 0 L 62.0625 -4.9375 C 62.0625 -6.015625 62.84375 -6.75 63.90625 -6.75 C 64.25 -6.75 64.703125 -6.6875 64.9375 -6.625 L 64.9375 -8.765625 C 64.71875 -8.8125 64.421875 -8.859375 64.171875 -8.859375 C 63.1875 -8.859375 62.390625 -8.28125 62.078125 -7.203125 L 61.984375 -7.203125 L 61.984375 -8.734375 L 59.640625 -8.734375 Z M 70.101562 3.453125 C 72.601562 3.453125 74.382812 2.3125 74.382812 0.078125 L 74.382812 -8.734375 L 71.976562 -8.734375 L 71.976562 -7.265625 L 71.882812 -7.265625 C 71.554688 -7.96875 70.851562 -8.84375 69.382812 -8.84375 C 67.476562 -8.84375 65.851562 -7.359375 65.851562 -4.375 C 65.851562 -1.484375 67.429688 -0.125 69.398438 -0.125 C 70.789062 -0.125 71.570312 -0.828125 71.882812 -1.546875 L 71.976562 -1.546875 L 71.976562 0.046875 C 71.976562 1.25 71.210938 1.71875 70.164062 1.71875 C 69.101562 1.71875 68.554688 1.25 68.351562 0.71875 L 66.117188 1.015625 C 66.414062 2.390625 67.757812 3.453125 70.101562 3.453125 Z M 70.164062 -1.9375 C 68.976562 -1.9375 68.320312 -2.890625 68.320312 -4.390625 C 68.320312 -5.875 68.960938 -6.921875 70.164062 -6.921875 C 71.335938 -6.921875 71.992188 -5.921875 71.992188 -4.390625 C 71.992188 -2.859375 71.320312 -1.9375 70.164062 -1.9375 Z M 75.339844 0 "/>
  </g>
</svg>
